A Multiple Linear Model for Toronto and Mississauga House Prices
…
#(b):

## # A tibble: 150 x 10
##       ID   sale   list bedroom bathroom parking maxsqfoot taxes location lotsize
##    <dbl>  <dbl>  <dbl>   <dbl>    <dbl>   <dbl>     <dbl> <dbl> <chr>      <dbl>
##  1   159 1.04e6 1.05e6       3        4       6      2500  5199 M          4540.
##  2   141 9.10e5 8.00e5       3        2       3        NA  4959 M          6500 
##  3   163 9.80e5 8.79e5       3        4       4        NA  4936 M          3516.
##  4    36 1.42e6 1.48e6       4        3       2        NA  4820 T          3498.
##  5   139 1.16e6 1.19e6       4        4       6      3000  5105 M          4000 
##  6    89 1.20e6 1.15e6       3        2      NA      1500  4114 T          2825 
##  7   101 1.30e6 1.30e6       3        2       2        NA  4592 T          2700 
##  8   204 9.30e5 9.30e5       4        4       4      2000  5546 M          4519.
##  9    16 2.80e6 3.08e6       4        5       2        NA 10003 T          3337.
## 10    85 1.39e6 1.46e6       3        2       1      1500  4594 T          2860.
## #  with 140 more rows
…
